…
``` r
merged_data_p1 = pols_month_df |>
  #merge snp into pols
  left_join(snp_df, by = c("year", "month")) |>
  #merge unemployment into pols and snp dataset
  left_join(unemployment_df, by = c("year", "month"))
```

This is the merged dataset:

``` r
print(merged_data_p1)
```

    ## # A tibble: 822 × 11
    ##     year month   gov_gop sen_gop rep_gop gov_dem sen_dem rep_dem president close
    ##    <dbl> <chr>     <dbl>   <dbl>   <dbl>   <dbl>   <dbl>   <dbl> <chr>     <dbl>
    ##  1  1947 April        23      51     253      23      45     198 dem          NA
    ##  2  1947 August       23      51     253      23      45     198 dem          NA
    ##  3  1947 Decemb…      24      51     253      23      45     198 dem          NA
    ##  4  1947 Februa…      23      51     253      23      45     198 dem          NA
    ##  5  1947 January      23      51     253      23      45     198 dem          NA
    ##  6  1947 July         23      51     253      23      45     198 dem          NA
    ##  7  1947 June         23      51     253      23      45     198 dem          NA
    ##  8  1947 March        23      51     253      23      45     198 dem          NA
    ##  9  1947 May          23      51     253      23      45     198 dem          NA
    ## 10  1947 Novemb…      24      51     253      23      45     198 dem          NA
    ## # ℹ 812 more rows
    ## # ℹ 1 more variable: unemployment_rate <dbl>
…
``` r
cat("This is the merged dataset: ")
```

    ## This is the merged dataset:

``` r
merged_data
```

    ## # A tibble: 17,516 × 18
    ##    region_id size_rank zip_code region_type state_name state city     metro     
    ##        <dbl>     <dbl>    <dbl> <chr>       <chr>      <chr> <chr>    <chr>     
    ##  1     61798        63    10458 zip         NY         NY    New York New York-…
    ##  2     61798        63    10458 zip         NY         NY    New York New York-…
    ##  3     61798        63    10458 zip         NY         NY    New York New York-…
    ##  4     61798        63    10458 zip         NY         NY    New York New York-…
    ##  5     61798        63    10458 zip         NY         NY    New York New York-…
    ##  6     61798        63    10458 zip         NY         NY    New York New York-…
    ##  7     61798        63    10458 zip         NY         NY    New York New York-…
    ##  8     61798        63    10458 zip         NY         NY    New York New York-…
    ##  9     61798        63    10458 zip         NY         NY    New York New York-…
    ## 10     61798        63    10458 zip         NY         NY    New York New York-…
    ## # ℹ 17,506 more rows
    ## # ℹ 10 more variables: county_name <chr>, date <date>, price <dbl>,
    ## #   county <chr>, state_fips <dbl>, county_code <chr>, county_fips <dbl>,
    ## #   file_date <chr>, neighborhood <chr>, borough <chr>
…
### Zip codes in zip_code dataset but not in rental_price dataset

``` r
missing_zip = zip_code_tidy |>
  anti_join(
    rental_price_tidy, 
    by = c("zip_code")
  ) |>
  select(zip_code, borough, neighborhood) |>
  arrange(borough, neighborhood)
missing_zip
```

    ## # A tibble: 171 × 3
    ##    zip_code borough  neighborhood              
    ##       <dbl> <chr>    <chr>                     
    ##  1    10474 Bronx    Hunts Point and Mott Haven
    ##  2    10475 Bronx    Northeast Bronx           
    ##  3    10464 Bronx    Southeast Bronx           
    ##  4    10499 Bronx    <NA>                      
    ##  5    10550 Bronx    <NA>                      
    ##  6    10704 Bronx    <NA>                      
    ##  7    10705 Bronx    <NA>                      
    ##  8    10803 Bronx    <NA>                      
    ##  9    11239 Brooklyn Canarsie and Flatlands    
    ## 10    11224 Brooklyn Southern Brooklyn         
    ## # ℹ 161 more rows
…
